<?xml version="1.0" encoding="iso-8859-1"?>
<!-- Generator: Adobe Illustrator 19.0.0, SVG Export Plug-In . SVG Version: 6.00 Build 0)  -->
<svg version="1.1" id="Capa_1" xmlns="http://www.w3.org/2000/svg" xmlns:xlink="http://www.w3.org/1999/xlink" x="0px" y="0px"
	 viewBox="0 0 497.704 497.704" style="enable-background:new 0 0 497.704 497.704;" xml:space="preserve">
<g>
	<path style="fill:#FFCB57;" d="M336.852,137.704v176h128V198.96c0-8.488,3.368-16.624,9.376-22.624l14.624-14.632v-24H336.852z"/>
	<path style="fill:#FFCB57;" d="M190.356,285.328l-61.504-107.616v-56.008h-48v56.008L19.348,285.328
		c-1.632,2.872-2.496,6.112-2.496,9.416c0,10.472,8.488,18.96,18.96,18.96h138.08c10.472,0,18.96-8.488,18.96-18.96
		C192.852,291.44,191.988,288.2,190.356,285.328z"/>
</g>
<g>
	<path style="fill:#3F3A34;" d="M248.852,289.704c6.08,0,12.128-0.768,17.992-2.264l-3.976-15.504
		c-4.568,1.176-9.28,1.768-14.016,1.768V289.704z"/>
	<path style="fill:#3F3A34;" d="M276.852,266.216l8.016,13.84c22.192-12.84,35.984-36.736,35.984-62.352c0-39.704-32.304-72-72-72
		v16c30.88,0,56,25.128,56,56C304.852,237.632,294.124,256.216,276.852,266.216z"/>
	<path style="fill:#3F3A34;" d="M407.1,129.704L374.676,0l-47.648,11.912l31.408,117.792h-21.584v16h144v12.688l-12.288,12.28
		c-6.296,6.296-10.064,14.352-11.2,23.032h-48.512v16h48v16h-24v16h24v16h-48v16h48v16h16V198.96c0-6.416,2.496-12.448,7.024-16.976
		l16.976-16.968v-35.312H407.1z M346.676,23.496l16.352-4.088l27.576,110.296h-15.608L346.676,23.496z"/>
	
		<rect x="66.002" y="217.695" transform="matrix(-0.4472 0.8944 -0.8944 -0.4472 336.2161 243.5958)" style="fill:#3F3A34;" width="53.662" height="16"/>
	
		<rect x="59.927" y="265.706" transform="matrix(-0.4472 0.8944 -0.8944 -0.4472 344.4811 334.5102)" style="fill:#3F3A34;" width="17.887" height="16"/>
	<path style="fill:#3F3A34;" d="M352.308,228.504c4.664-46.072-21.232-89.144-63.456-106.712V49.704h16v-48h-112v48h16V121.8
		c-25.992,10.832-46.536,31.776-56.856,58.168l14.896,5.832c9.328-23.84,28.504-42.424,52.632-50.968l5.328-1.896V49.704h48v83.232
		l5.328,1.88c38.384,13.592,62.32,51.456,58.2,92.072c-3.664,36.256-31.064,67.624-66.616,76.272
		c-6.88,1.672-13.92,2.52-20.912,2.52v0.024h-50.384c1.504-3.36,2.384-7.048,2.384-10.96c0-4.696-1.232-9.32-3.552-13.384
		l-60.448-105.776v-45.88h16v-48h-96v48h16v45.88L12.404,281.352c-2.32,4.072-3.552,8.696-3.552,13.392
		c0,3.912,0.88,7.6,2.384,10.96H0.852v64h496v-64H304.228C330.804,289,349.036,260.776,352.308,228.504z M208.852,17.704h80v16h-80
		V17.704z M72.852,97.704h64v16h-64V97.704z M24.852,294.744c0-1.904,0.496-3.792,1.448-5.448L88.852,179.84v-50.136h32v50.136
		l62.552,109.472c0.952,1.64,1.448,3.528,1.448,5.432c0,6.048-4.92,10.96-10.968,10.96H35.82
		C29.772,305.704,24.852,300.792,24.852,294.744z M480.852,353.704h-464v-32H35.82h138.072h306.96V353.704z"/>
</g>
<path style="fill:#E56565;" d="M456.852,385.704v64h-40v-40h-336v40h-40v-64h-16v112h72v-72h304v72h72v-112H456.852z
	 M40.852,481.704v-16h40v16H40.852z M416.852,481.704v-16h40v16H416.852z"/>
<g>
</g>
<g>
</g>
<g>
</g>
<g>
</g>
<g>
</g>
<g>
</g>
<g>
</g>
<g>
</g>
<g>
</g>
<g>
</g>
<g>
</g>
<g>
</g>
<g>
</g>
<g>
</g>
<g>
</g>
</svg>
